-- Merging decision tree log ---
manifest
ADDED from D:\OSM_TaskClient\OSM_TaskClient\oSM_TaskClient\src\main\AndroidManifest.xml:2:1-132:12
INJECTED from D:\OSM_TaskClient\OSM_TaskClient\oSM_TaskClient\src\main\AndroidManifest.xml:2:1-132:12
INJECTED from D:\OSM_TaskClient\OSM_TaskClient\oSM_TaskClient\src\main\AndroidManifest.xml:2:1-132:12
INJECTED from D:\OSM_TaskClient\OSM_TaskClient\oSM_TaskClient\src\main\AndroidManifest.xml:2:1-132:12
MERGED from [com.android.support:multidex:1.0.2] C:\Users\yitsol\.gradle\caches\transforms-1\files-1.1\multidex-1.0.2.aar\f21332025a32fcacdfb2e8b0eb80a9b6\AndroidManifest.xml:17:1-22:12
MERGED from [com.android.support:support-v4:20.0.0] C:\Users\yitsol\.gradle\caches\transforms-1\files-1.1\support-v4-20.0.0.aar\26c36f7ac6beb421e23246f0d6da0cf5\AndroidManifest.xml:15:1-18:12
INJECTED from D:\OSM_TaskClient\OSM_TaskClient\oSM_TaskClient\src\main\AndroidManifest.xml:2:1-132:12
INJECTED from D:\OSM_TaskClient\OSM_TaskClient\oSM_TaskClient\src\main\AndroidManifest.xml:2:1-132:12
INJECTED from D:\OSM_TaskClient\OSM_TaskClient\oSM_TaskClient\src\main\AndroidManifest.xml:2:1-132:12
	package
		ADDED from D:\OSM_TaskClient\OSM_TaskClient\oSM_TaskClient\src\main\AndroidManifest.xml:3:5-37
		INJECTED from D:\OSM_TaskClient\OSM_TaskClient\oSM_TaskClient\src\main\AndroidManifest.xml
		INJECTED from D:\OSM_TaskClient\OSM_TaskClient\oSM_TaskClient\src\main\AndroidManifest.xml
	android:versionName
		ADDED from D:\OSM_TaskClient\OSM_TaskClient\oSM_TaskClient\src\main\AndroidManifest.xml:5:5-30
		INJECTED from D:\OSM_TaskClient\OSM_TaskClient\oSM_TaskClient\src\main\AndroidManifest.xml
		INJECTED from D:\OSM_TaskClient\OSM_TaskClient\oSM_TaskClient\src\main\AndroidManifest.xml
	xmlns:android
		ADDED from D:\OSM_TaskClient\OSM_TaskClient\oSM_TaskClient\src\main\AndroidManifest.xml:2:11-69
	android:versionCode
		ADDED from D:\OSM_TaskClient\OSM_TaskClient\oSM_TaskClient\src\main\AndroidManifest.xml:4:5-28
		INJECTED from D:\OSM_TaskClient\OSM_TaskClient\oSM_TaskClient\src\main\AndroidManifest.xml
		INJECTED from D:\OSM_TaskClient\OSM_TaskClient\oSM_TaskClient\src\main\AndroidManifest.xml
uses-sdk
ADDED from D:\OSM_TaskClient\OSM_TaskClient\oSM_TaskClient\src\main\AndroidManifest.xml:7:5-9:41
INJECTED from D:\OSM_TaskClient\OSM_TaskClient\oSM_TaskClient\src\main\AndroidManifest.xml:7:5-9:41
INJECTED from D:\OSM_TaskClient\OSM_TaskClient\oSM_TaskClient\src\main\AndroidManifest.xml:7:5-9:41
MERGED from [com.android.support:multidex:1.0.2] C:\Users\yitsol\.gradle\caches\transforms-1\files-1.1\multidex-1.0.2.aar\f21332025a32fcacdfb2e8b0eb80a9b6\AndroidManifest.xml:20:5-43
MERGED from [com.android.support:multidex:1.0.2] C:\Users\yitsol\.gradle\caches\transforms-1\files-1.1\multidex-1.0.2.aar\f21332025a32fcacdfb2e8b0eb80a9b6\AndroidManifest.xml:20:5-43
MERGED from [com.android.support:support-v4:20.0.0] C:\Users\yitsol\.gradle\caches\transforms-1\files-1.1\support-v4-20.0.0.aar\26c36f7ac6beb421e23246f0d6da0cf5\AndroidManifest.xml:16:5-42
MERGED from [com.android.support:support-v4:20.0.0] C:\Users\yitsol\.gradle\caches\transforms-1\files-1.1\support-v4-20.0.0.aar\26c36f7ac6beb421e23246f0d6da0cf5\AndroidManifest.xml:16:5-42
INJECTED from D:\OSM_TaskClient\OSM_TaskClient\oSM_TaskClient\src\main\AndroidManifest.xml:7:5-9:41
INJECTED from D:\OSM_TaskClient\OSM_TaskClient\oSM_TaskClient\src\main\AndroidManifest.xml:7:5-9:41
	android:targetSdkVersion
		ADDED from D:\OSM_TaskClient\OSM_TaskClient\oSM_TaskClient\src\main\AndroidManifest.xml:9:9-38
		INJECTED from D:\OSM_TaskClient\OSM_TaskClient\oSM_TaskClient\src\main\AndroidManifest.xml
		INJECTED from D:\OSM_TaskClient\OSM_TaskClient\oSM_TaskClient\src\main\AndroidManifest.xml
	android:minSdkVersion
		ADDED from D:\OSM_TaskClient\OSM_TaskClient\oSM_TaskClient\src\main\AndroidManifest.xml:8:9-35
		INJECTED from D:\OSM_TaskClient\OSM_TaskClient\oSM_TaskClient\src\main\AndroidManifest.xml
		INJECTED from D:\OSM_TaskClient\OSM_TaskClient\oSM_TaskClient\src\main\AndroidManifest.xml
uses-permission#android.permission.INTERNET
ADDED from D:\OSM_TaskClient\OSM_TaskClient\oSM_TaskClient\src\main\AndroidManifest.xml:11:5-67
	android:name
		ADDED from D:\OSM_TaskClient\OSM_TaskClient\oSM_TaskClient\src\main\AndroidManifest.xml:11:22-64
uses-permission#android.permission.ACCESS_NETWORK_STATE
ADDED from D:\OSM_TaskClient\OSM_TaskClient\oSM_TaskClient\src\main\AndroidManifest.xml:12:5-79
	android:name
		ADDED from D:\OSM_TaskClient\OSM_TaskClient\oSM_TaskClient\src\main\AndroidManifest.xml:12:22-76
uses-permission#android.permission.READ_EXTERNAL_STORAGE
ADDED from D:\OSM_TaskClient\OSM_TaskClient\oSM_TaskClient\src\main\AndroidManifest.xml:13:5-80
	android:name
		ADDED from D:\OSM_TaskClient\OSM_TaskClient\oSM_TaskClient\src\main\AndroidManifest.xml:13:22-77
uses-permission#android.permission.READ_INTERNAL_STORAGE
ADDED from D:\OSM_TaskClient\OSM_TaskClient\oSM_TaskClient\src\main\AndroidManifest.xml:14:5-80
	android:name
		ADDED from D:\OSM_TaskClient\OSM_TaskClient\oSM_TaskClient\src\main\AndroidManifest.xml:14:22-77
application
ADDED from D:\OSM_TaskClient\OSM_TaskClient\oSM_TaskClient\src\main\AndroidManifest.xml:17:5-130:19
MERGED from [com.android.support:support-v4:20.0.0] C:\Users\yitsol\.gradle\caches\transforms-1\files-1.1\support-v4-20.0.0.aar\26c36f7ac6beb421e23246f0d6da0cf5\AndroidManifest.xml:17:5-19
MERGED from [com.android.support:support-v4:20.0.0] C:\Users\yitsol\.gradle\caches\transforms-1\files-1.1\support-v4-20.0.0.aar\26c36f7ac6beb421e23246f0d6da0cf5\AndroidManifest.xml:17:5-19
	android:label
		ADDED from D:\OSM_TaskClient\OSM_TaskClient\oSM_TaskClient\src\main\AndroidManifest.xml:20:9-41
	android:icon
		ADDED from D:\OSM_TaskClient\OSM_TaskClient\oSM_TaskClient\src\main\AndroidManifest.xml:19:9-42
	android:allowBackup
		ADDED from D:\OSM_TaskClient\OSM_TaskClient\oSM_TaskClient\src\main\AndroidManifest.xml:18:9-35
	android:theme
		ADDED from D:\OSM_TaskClient\OSM_TaskClient\oSM_TaskClient\src\main\AndroidManifest.xml:21:9-40
activity#com.bm.task.client.utils.SplashScreen
ADDED from D:\OSM_TaskClient\OSM_TaskClient\oSM_TaskClient\src\main\AndroidManifest.xml:22:9-32:20
	android:screenOrientation
		ADDED from D:\OSM_TaskClient\OSM_TaskClient\oSM_TaskClient\src\main\AndroidManifest.xml:25:13-49
	android:label
		ADDED from D:\OSM_TaskClient\OSM_TaskClient\oSM_TaskClient\src\main\AndroidManifest.xml:24:13-45
	android:windowSoftInputMode
		ADDED from D:\OSM_TaskClient\OSM_TaskClient\oSM_TaskClient\src\main\AndroidManifest.xml:26:13-54
	android:name
		ADDED from D:\OSM_TaskClient\OSM_TaskClient\oSM_TaskClient\src\main\AndroidManifest.xml:23:13-65
intent-filter#action:name:android.intent.action.MAIN+category:name:android.intent.category.LAUNCHER
ADDED from D:\OSM_TaskClient\OSM_TaskClient\oSM_TaskClient\src\main\AndroidManifest.xml:27:13-31:29
action#android.intent.action.MAIN
ADDED from D:\OSM_TaskClient\OSM_TaskClient\oSM_TaskClient\src\main\AndroidManifest.xml:28:17-69
	android:name
		ADDED from D:\OSM_TaskClient\OSM_TaskClient\oSM_TaskClient\src\main\AndroidManifest.xml:28:25-66
category#android.intent.category.LAUNCHER
ADDED from D:\OSM_TaskClient\OSM_TaskClient\oSM_TaskClient\src\main\AndroidManifest.xml:30:17-77
	android:name
		ADDED from D:\OSM_TaskClient\OSM_TaskClient\oSM_TaskClient\src\main\AndroidManifest.xml:30:27-74
activity#com.bm.task.client.utils.NextActivity
ADDED from D:\OSM_TaskClient\OSM_TaskClient\oSM_TaskClient\src\main\AndroidManifest.xml:34:9-37:66
	android:screenOrientation
		ADDED from D:\OSM_TaskClient\OSM_TaskClient\oSM_TaskClient\src\main\AndroidManifest.xml:36:13-49
	android:windowSoftInputMode
		ADDED from D:\OSM_TaskClient\OSM_TaskClient\oSM_TaskClient\src\main\AndroidManifest.xml:37:13-54
	android:name
		ADDED from D:\OSM_TaskClient\OSM_TaskClient\oSM_TaskClient\src\main\AndroidManifest.xml:35:13-65
activity#com.bm.task.client.fragment.FragmentDisplayActivity
ADDED from D:\OSM_TaskClient\OSM_TaskClient\oSM_TaskClient\src\main\AndroidManifest.xml:38:9-41:66
	android:screenOrientation
		ADDED from D:\OSM_TaskClient\OSM_TaskClient\oSM_TaskClient\src\main\AndroidManifest.xml:40:13-49
	android:windowSoftInputMode
		ADDED from D:\OSM_TaskClient\OSM_TaskClient\oSM_TaskClient\src\main\AndroidManifest.xml:41:13-54
	android:name
		ADDED from D:\OSM_TaskClient\OSM_TaskClient\oSM_TaskClient\src\main\AndroidManifest.xml:39:13-79
activity#com.bm.task.client.fragment.FragmentForWorkList
ADDED from D:\OSM_TaskClient\OSM_TaskClient\oSM_TaskClient\src\main\AndroidManifest.xml:43:9-46:66
	android:screenOrientation
		ADDED from D:\OSM_TaskClient\OSM_TaskClient\oSM_TaskClient\src\main\AndroidManifest.xml:45:13-49
	android:windowSoftInputMode
		ADDED from D:\OSM_TaskClient\OSM_TaskClient\oSM_TaskClient\src\main\AndroidManifest.xml:46:13-54
	android:name
		ADDED from D:\OSM_TaskClient\OSM_TaskClient\oSM_TaskClient\src\main\AndroidManifest.xml:44:13-75
activity#com.bm.task.client.fragment.FragmentForQuery
ADDED from D:\OSM_TaskClient\OSM_TaskClient\oSM_TaskClient\src\main\AndroidManifest.xml:48:9-51:66
	android:screenOrientation
		ADDED from D:\OSM_TaskClient\OSM_TaskClient\oSM_TaskClient\src\main\AndroidManifest.xml:50:13-49
	android:windowSoftInputMode
		ADDED from D:\OSM_TaskClient\OSM_TaskClient\oSM_TaskClient\src\main\AndroidManifest.xml:51:13-54
	android:name
		ADDED from D:\OSM_TaskClient\OSM_TaskClient\oSM_TaskClient\src\main\AndroidManifest.xml:49:13-72
activity#com.bm.task.client.query.GetOrderQueryActivity
ADDED from D:\OSM_TaskClient\OSM_TaskClient\oSM_TaskClient\src\main\AndroidManifest.xml:52:9-55:66
	android:screenOrientation
		ADDED from D:\OSM_TaskClient\OSM_TaskClient\oSM_TaskClient\src\main\AndroidManifest.xml:54:13-49
	android:windowSoftInputMode
		ADDED from D:\OSM_TaskClient\OSM_TaskClient\oSM_TaskClient\src\main\AndroidManifest.xml:55:13-54
	android:name
		ADDED from D:\OSM_TaskClient\OSM_TaskClient\oSM_TaskClient\src\main\AndroidManifest.xml:53:13-74
activity#com.bm.task.client.fragment.FragmentForReporting
ADDED from D:\OSM_TaskClient\OSM_TaskClient\oSM_TaskClient\src\main\AndroidManifest.xml:56:9-59:66
	android:screenOrientation
		ADDED from D:\OSM_TaskClient\OSM_TaskClient\oSM_TaskClient\src\main\AndroidManifest.xml:58:13-49
	android:windowSoftInputMode
		ADDED from D:\OSM_TaskClient\OSM_TaskClient\oSM_TaskClient\src\main\AndroidManifest.xml:59:13-54
	android:name
		ADDED from D:\OSM_TaskClient\OSM_TaskClient\oSM_TaskClient\src\main\AndroidManifest.xml:57:13-76
activity#com.bm.task.client.utils.LoginActivity
ADDED from D:\OSM_TaskClient\OSM_TaskClient\oSM_TaskClient\src\main\AndroidManifest.xml:60:9-63:66
	android:screenOrientation
		ADDED from D:\OSM_TaskClient\OSM_TaskClient\oSM_TaskClient\src\main\AndroidManifest.xml:62:13-49
	android:windowSoftInputMode
		ADDED from D:\OSM_TaskClient\OSM_TaskClient\oSM_TaskClient\src\main\AndroidManifest.xml:63:13-54
	android:name
		ADDED from D:\OSM_TaskClient\OSM_TaskClient\oSM_TaskClient\src\main\AndroidManifest.xml:61:13-66
activity#com.bm.task.client.reporting.StatusDescription
ADDED from D:\OSM_TaskClient\OSM_TaskClient\oSM_TaskClient\src\main\AndroidManifest.xml:64:9-67:66
	android:screenOrientation
		ADDED from D:\OSM_TaskClient\OSM_TaskClient\oSM_TaskClient\src\main\AndroidManifest.xml:66:13-49
	android:windowSoftInputMode
		ADDED from D:\OSM_TaskClient\OSM_TaskClient\oSM_TaskClient\src\main\AndroidManifest.xml:67:13-54
	android:name
		ADDED from D:\OSM_TaskClient\OSM_TaskClient\oSM_TaskClient\src\main\AndroidManifest.xml:65:13-74
activity#com.bm.task.client.reporting.ReportActivity
ADDED from D:\OSM_TaskClient\OSM_TaskClient\oSM_TaskClient\src\main\AndroidManifest.xml:68:9-71:66
	android:screenOrientation
		ADDED from D:\OSM_TaskClient\OSM_TaskClient\oSM_TaskClient\src\main\AndroidManifest.xml:70:13-49
	android:windowSoftInputMode
		ADDED from D:\OSM_TaskClient\OSM_TaskClient\oSM_TaskClient\src\main\AndroidManifest.xml:71:13-54
	android:name
		ADDED from D:\OSM_TaskClient\OSM_TaskClient\oSM_TaskClient\src\main\AndroidManifest.xml:69:13-71
activity#com.bm.task.client.worklist.WorkListActivity
ADDED from D:\OSM_TaskClient\OSM_TaskClient\oSM_TaskClient\src\main\AndroidManifest.xml:72:9-75:66
	android:screenOrientation
		ADDED from D:\OSM_TaskClient\OSM_TaskClient\oSM_TaskClient\src\main\AndroidManifest.xml:74:13-49
	android:windowSoftInputMode
		ADDED from D:\OSM_TaskClient\OSM_TaskClient\oSM_TaskClient\src\main\AndroidManifest.xml:75:13-54
	android:name
		ADDED from D:\OSM_TaskClient\OSM_TaskClient\oSM_TaskClient\src\main\AndroidManifest.xml:73:13-72
activity#com.bm.task.client.utils.PopUpForIP
ADDED from D:\OSM_TaskClient\OSM_TaskClient\oSM_TaskClient\src\main\AndroidManifest.xml:76:9-79:82
	android:screenOrientation
		ADDED from D:\OSM_TaskClient\OSM_TaskClient\oSM_TaskClient\src\main\AndroidManifest.xml:78:13-49
	android:theme
		ADDED from D:\OSM_TaskClient\OSM_TaskClient\oSM_TaskClient\src\main\AndroidManifest.xml:79:13-70
	android:name
		ADDED from D:\OSM_TaskClient\OSM_TaskClient\oSM_TaskClient\src\main\AndroidManifest.xml:77:13-63
activity#com.bm.task.client.utils.ChangeIP
ADDED from D:\OSM_TaskClient\OSM_TaskClient\oSM_TaskClient\src\main\AndroidManifest.xml:80:9-83:55
	android:screenOrientation
		ADDED from D:\OSM_TaskClient\OSM_TaskClient\oSM_TaskClient\src\main\AndroidManifest.xml:82:13-49
	android:theme
		ADDED from D:\OSM_TaskClient\OSM_TaskClient\oSM_TaskClient\src\main\AndroidManifest.xml:83:13-43
	android:name
		ADDED from D:\OSM_TaskClient\OSM_TaskClient\oSM_TaskClient\src\main\AndroidManifest.xml:81:13-61
activity#com.bm.task.client.worklist.GetOrderActivity
ADDED from D:\OSM_TaskClient\OSM_TaskClient\oSM_TaskClient\src\main\AndroidManifest.xml:84:9-87:66
	android:screenOrientation
		ADDED from D:\OSM_TaskClient\OSM_TaskClient\oSM_TaskClient\src\main\AndroidManifest.xml:86:13-49
	android:windowSoftInputMode
		ADDED from D:\OSM_TaskClient\OSM_TaskClient\oSM_TaskClient\src\main\AndroidManifest.xml:87:13-54
	android:name
		ADDED from D:\OSM_TaskClient\OSM_TaskClient\oSM_TaskClient\src\main\AndroidManifest.xml:85:13-72
activity#com.bm.task.client.worklist.PopupOrders
ADDED from D:\OSM_TaskClient\OSM_TaskClient\oSM_TaskClient\src\main\AndroidManifest.xml:88:9-91:82
	android:screenOrientation
		ADDED from D:\OSM_TaskClient\OSM_TaskClient\oSM_TaskClient\src\main\AndroidManifest.xml:90:13-49
	android:theme
		ADDED from D:\OSM_TaskClient\OSM_TaskClient\oSM_TaskClient\src\main\AndroidManifest.xml:91:13-70
	android:name
		ADDED from D:\OSM_TaskClient\OSM_TaskClient\oSM_TaskClient\src\main\AndroidManifest.xml:89:13-67
activity#com.bm.task.client.worklist.HistoryDescription
ADDED from D:\OSM_TaskClient\OSM_TaskClient\oSM_TaskClient\src\main\AndroidManifest.xml:93:9-96:55
	android:screenOrientation
		ADDED from D:\OSM_TaskClient\OSM_TaskClient\oSM_TaskClient\src\main\AndroidManifest.xml:95:13-49
	android:theme
		ADDED from D:\OSM_TaskClient\OSM_TaskClient\oSM_TaskClient\src\main\AndroidManifest.xml:96:13-43
	android:name
		ADDED from D:\OSM_TaskClient\OSM_TaskClient\oSM_TaskClient\src\main\AndroidManifest.xml:94:13-74
activity#com.bm.task.client.worklist.ChangeStatus
ADDED from D:\OSM_TaskClient\OSM_TaskClient\oSM_TaskClient\src\main\AndroidManifest.xml:97:9-99:61
	android:screenOrientation
		ADDED from D:\OSM_TaskClient\OSM_TaskClient\oSM_TaskClient\src\main\AndroidManifest.xml:99:13-49
	android:name
		ADDED from D:\OSM_TaskClient\OSM_TaskClient\oSM_TaskClient\src\main\AndroidManifest.xml:98:13-68
activity#com.bm.task.client.worklist.ChangeStatus1
ADDED from D:\OSM_TaskClient\OSM_TaskClient\oSM_TaskClient\src\main\AndroidManifest.xml:101:9-103:61
	android:screenOrientation
		ADDED from D:\OSM_TaskClient\OSM_TaskClient\oSM_TaskClient\src\main\AndroidManifest.xml:103:13-49
	android:name
		ADDED from D:\OSM_TaskClient\OSM_TaskClient\oSM_TaskClient\src\main\AndroidManifest.xml:102:13-69
activity#com.bm.task.client.worklist.ProcessHistoryActivity
ADDED from D:\OSM_TaskClient\OSM_TaskClient\oSM_TaskClient\src\main\AndroidManifest.xml:105:9-107:61
	android:screenOrientation
		ADDED from D:\OSM_TaskClient\OSM_TaskClient\oSM_TaskClient\src\main\AndroidManifest.xml:107:13-49
	android:name
		ADDED from D:\OSM_TaskClient\OSM_TaskClient\oSM_TaskClient\src\main\AndroidManifest.xml:106:13-78
activity#com.bm.task.client.query.QueryActivity
ADDED from D:\OSM_TaskClient\OSM_TaskClient\oSM_TaskClient\src\main\AndroidManifest.xml:109:9-111:61
	android:screenOrientation
		ADDED from D:\OSM_TaskClient\OSM_TaskClient\oSM_TaskClient\src\main\AndroidManifest.xml:111:13-49
	android:name
		ADDED from D:\OSM_TaskClient\OSM_TaskClient\oSM_TaskClient\src\main\AndroidManifest.xml:110:13-66
activity#com.bm.task.client.query.QueryLstActivity
ADDED from D:\OSM_TaskClient\OSM_TaskClient\oSM_TaskClient\src\main\AndroidManifest.xml:113:9-115:61
	android:screenOrientation
		ADDED from D:\OSM_TaskClient\OSM_TaskClient\oSM_TaskClient\src\main\AndroidManifest.xml:115:13-49
	android:name
		ADDED from D:\OSM_TaskClient\OSM_TaskClient\oSM_TaskClient\src\main\AndroidManifest.xml:114:13-69
activity#com.bm.task.client.worklist.AddRemark
ADDED from D:\OSM_TaskClient\OSM_TaskClient\oSM_TaskClient\src\main\AndroidManifest.xml:117:9-119:61
	android:screenOrientation
		ADDED from D:\OSM_TaskClient\OSM_TaskClient\oSM_TaskClient\src\main\AndroidManifest.xml:119:13-49
	android:name
		ADDED from D:\OSM_TaskClient\OSM_TaskClient\oSM_TaskClient\src\main\AndroidManifest.xml:118:13-65
activity#com.bm.task.client.reporting.Chart
ADDED from D:\OSM_TaskClient\OSM_TaskClient\oSM_TaskClient\src\main\AndroidManifest.xml:121:9-123:63
	android:theme
		ADDED from D:\OSM_TaskClient\OSM_TaskClient\oSM_TaskClient\src\main\AndroidManifest.xml:123:13-60
	android:name
		ADDED from D:\OSM_TaskClient\OSM_TaskClient\oSM_TaskClient\src\main\AndroidManifest.xml:122:13-62
activity#com.bm.task.client.worklist.RemarkActivity
ADDED from D:\OSM_TaskClient\OSM_TaskClient\oSM_TaskClient\src\main\AndroidManifest.xml:125:9-127:61
	android:screenOrientation
		ADDED from D:\OSM_TaskClient\OSM_TaskClient\oSM_TaskClient\src\main\AndroidManifest.xml:127:13-49
	android:name
		ADDED from D:\OSM_TaskClient\OSM_TaskClient\oSM_TaskClient\src\main\AndroidManifest.xml:126:13-70
